(export (version D)
  (design
    (source /home/soso/Projects/overnight_sensation-speakers-pcb/overnight_sensation_mtm/overnight_sensation_mtm.sch)
    (date "Thu 21 Sep 2017 05:17:50 PM EDT")
    (tool "Eeschema 4.0.7-e2-6376~58~ubuntu16.04.1")
    (sheet (number 1) (name /) (tstamps /)
      (title_block
        (title)
        (company)
        (rev)
        (date)
        (source overnight_sensation_mtm.sch)
        (comment (number 1) (value ""))
        (comment (number 2) (value ""))
        (comment (number 3) (value ""))
        (comment (number 4) (value "")))))
  (components
    (comp (ref R1)
      (value 10R)
      (footprint Resistors_THT:R_Axial_Power_L50.0mm_W9.0mm_P55.88mm)
      (libsource (lib device) (part R))
      (sheetpath (names /) (tstamps /))
      (tstamp 58F7D030))
    (comp (ref C2)
      (value 0.22uF)
      (footprint Capacitors_THT:C_Axial_L22.0mm_D9.5mm_P27.50mm_Horizontal)
      (libsource (lib device) (part C))
      (sheetpath (names /) (tstamps /))
      (tstamp 58F7D1B2))
    (comp (ref J1)
      (value Screw_Terminal_1x02)
      (footprint Connectors_Terminal_Blocks:TerminalBlock_Pheonix_PT-3.5mm_2pol)
      (libsource (lib overnight_sensation_mtm-cache) (part Screw_Terminal_1x02))
      (sheetpath (names /) (tstamps /))
      (tstamp 58F7D300))
    (comp (ref C1)
      (value 4.7uF)
      (footprint Capacitors_THT:CP_Axial_L29.0mm_D16.0mm_P35.00mm_Horizontal)
      (libsource (lib device) (part C))
      (sheetpath (names /) (tstamps /))
      (tstamp 58F7D7C3))
    (comp (ref C3)
      (value 4.7uF)
      (footprint Capacitors_THT:CP_Axial_L29.0mm_D16.0mm_P35.00mm_Horizontal)
      (libsource (lib device) (part C))
      (sheetpath (names /) (tstamps /))
      (tstamp 58F7D856))
    (comp (ref L2)
      (value 0.15mH)
      (footprint Inductors_THT:L_Toroid_Vertical_L28.6mm_W14.3mm_P11.43mm_Bourns_5700)
      (libsource (lib device) (part L))
      (sheetpath (names /) (tstamps /))
      (tstamp 58F7D985))
    (comp (ref LS1)
      (value "Daytona ND20FA")
      (footprint Connectors_Terminal_Blocks:TerminalBlock_Pheonix_PT-3.5mm_2pol)
      (libsource (lib device) (part Speaker))
      (sheetpath (names /) (tstamps /))
      (tstamp 58F7E3B0))
    (comp (ref LS2)
      (value "HIVI B4N")
      (footprint Connectors_Terminal_Blocks:TerminalBlock_Pheonix_PT-3.5mm_2pol)
      (libsource (lib device) (part Speaker))
      (sheetpath (names /) (tstamps /))
      (tstamp 58F7E470))
    (comp (ref LS3)
      (value "HIVI B4N")
      (footprint Connectors_Terminal_Blocks:TerminalBlock_Pheonix_PT-3.5mm_2pol)
      (libsource (lib device) (part Speaker))
      (sheetpath (names /) (tstamps /))
      (tstamp 58F7E553))
    (comp (ref C4)
      (value 10uF)
      (footprint Capacitors_THT:CP_Axial_L34.5mm_D20.0mm_P41.00mm_Horizontal)
      (libsource (lib device) (part C))
      (sheetpath (names /) (tstamps /))
      (tstamp 58F7E63F))
    (comp (ref R2)
      (value 1R5)
      (footprint Resistors_THT:R_Axial_Power_L50.0mm_W9.0mm_P60.96mm)
      (libsource (lib device) (part R))
      (sheetpath (names /) (tstamps /))
      (tstamp 58F7E753))
    (comp (ref L1)
      (value 0.9mH)
      (footprint overnight:L_Toroid_Horizontal_D49.3mm_P44.60mm_Vishay_TJ8)
      (libsource (lib device) (part L))
      (sheetpath (names /) (tstamps /))
      (tstamp 58F7ED7E)))
  (libparts
    (libpart (lib device) (part C)
      (description "Unpolarized capacitor")
      (footprints
        (fp C_*))
      (fields
        (field (name Reference) C)
        (field (name Value) C))
      (pins
        (pin (num 1) (name ~) (type passive))
        (pin (num 2) (name ~) (type passive))))
    (libpart (lib device) (part L)
      (description Inductor)
      (footprints
        (fp Choke_*)
        (fp *Coil*)
        (fp Inductor_*)
        (fp L_*))
      (fields
        (field (name Reference) L)
        (field (name Value) L))
      (pins
        (pin (num 1) (name 1) (type passive))
        (pin (num 2) (name 2) (type passive))))
    (libpart (lib device) (part R)
      (description Resistor)
      (footprints
        (fp R_*)
        (fp R_*))
      (fields
        (field (name Reference) R)
        (field (name Value) R))
      (pins
        (pin (num 1) (name ~) (type passive))
        (pin (num 2) (name ~) (type passive))))
    (libpart (lib overnight_sensation_mtm-cache) (part Screw_Terminal_1x02)
      (footprints
        (fp bornier2)
        (fp TerminalBlock*2pol))
      (fields
        (field (name Reference) J)
        (field (name Value) Screw_Terminal_1x02))
      (pins
        (pin (num 1) (name ~) (type passive))
        (pin (num 2) (name ~) (type passive))))
    (libpart (lib device) (part Speaker)
      (description "speaker ")
      (fields
        (field (name Reference) LS)
        (field (name Value) Speaker))
      (pins
        (pin (num 1) (name 1) (type input))
        (pin (num 2) (name 2) (type input)))))
  (libraries
    (library (logical device)
      (uri /usr/share/kicad/library/device.lib))
    (library (logical overnight_sensation_mtm-cache)
      (uri /home/soso/Projects/overnight_sensation-speakers-pcb/overnight_sensation_mtm/overnight_sensation_mtm-cache.lib)))
  (nets
    (net (code 1) (name "Net-(C1-Pad2)")
      (node (ref L2) (pin 1))
      (node (ref C1) (pin 2))
      (node (ref C3) (pin 1)))
    (net (code 2) (name "Net-(C4-Pad2)")
      (node (ref R2) (pin 1))
      (node (ref C4) (pin 2)))
    (net (code 3) (name "Net-(C3-Pad2)")
      (node (ref LS1) (pin 1))
      (node (ref C3) (pin 2)))
    (net (code 4) (name "Net-(C1-Pad1)")
      (node (ref C1) (pin 1))
      (node (ref R1) (pin 1)))
    (net (code 5) (name "Net-(C2-Pad1)")
      (node (ref LS3) (pin 1))
      (node (ref C4) (pin 1))
      (node (ref L1) (pin 1))
      (node (ref C2) (pin 1))
      (node (ref LS2) (pin 1)))
    (net (code 6) (name /RED_2)
      (node (ref L1) (pin 2))
      (node (ref J1) (pin 1))
      (node (ref C2) (pin 2))
      (node (ref R1) (pin 2)))
    (net (code 7) (name /BLACK_2)
      (node (ref R2) (pin 2))
      (node (ref LS3) (pin 2))
      (node (ref LS2) (pin 2))
      (node (ref LS1) (pin 2))
      (node (ref L2) (pin 2))
      (node (ref J1) (pin 2)))))