(kicad_pcb (version 4) (host pcbnew 4.0.7-e2-6376~58~ubuntu16.04.1)

  (general
    (links 17)
    (no_connects 0)
    (area 26.924999 0.3 212.85 104.64)
    (thickness 1.6)
    (drawings 27)
    (tracks 51)
    (zones 0)
    (modules 19)
    (nets 7)
  )

  (page A4)
  (layers
    (0 F.Cu signal)
    (31 B.Cu signal)
    (32 B.Adhes user)
    (33 F.Adhes user)
    (34 B.Paste user)
    (35 F.Paste user)
    (36 B.SilkS user)
    (37 F.SilkS user)
    (38 B.Mask user)
    (39 F.Mask user)
    (40 Dwgs.User user)
    (41 Cmts.User user)
    (42 Eco1.User user)
    (43 Eco2.User user)
    (44 Edge.Cuts user)
    (45 Margin user)
    (46 B.CrtYd user)
    (47 F.CrtYd user)
    (48 B.Fab user)
    (49 F.Fab user)
  )

  (setup
    (last_trace_width 2)
    (trace_clearance 0.765)
    (zone_clearance 0.508)
    (zone_45_only no)
    (trace_min 0.2)
    (segment_width 0.2)
    (edge_width 0.15)
    (via_size 0.6)
    (via_drill 0.4)
    (via_min_size 0.4)
    (via_min_drill 0.3)
    (uvia_size 0.3)
    (uvia_drill 0.1)
    (uvias_allowed no)
    (uvia_min_size 0)
    (uvia_min_drill 0)
    (pcb_text_width 0.3)
    (pcb_text_size 1.5 1.5)
    (mod_edge_width 0.15)
    (mod_text_size 1 1)
    (mod_text_width 0.15)
    (pad_size 1.524 1.524)
    (pad_drill 0.762)
    (pad_to_mask_clearance 0.2)
    (aux_axis_origin 0 0)
    (visible_elements FFFFFF7F)
    (pcbplotparams
      (layerselection 0x010f0_80000001)
      (usegerberextensions true)
      (excludeedgelayer true)
      (linewidth 0.100000)
      (plotframeref false)
      (viasonmask false)
      (mode 1)
      (useauxorigin false)
      (hpglpennumber 1)
      (hpglpenspeed 20)
      (hpglpendiameter 15)
      (hpglpenoverlay 2)
      (psnegative false)
      (psa4output false)
      (plotreference true)
      (plotvalue true)
      (plotinvisibletext false)
      (padsonsilk false)
      (subtractmaskfromsilk false)
      (outputformat 1)
      (mirror false)
      (drillshape 0)
      (scaleselection 1)
      (outputdirectory ""))
  )

  (net 0 "")
  (net 1 "Net-(C1-Pad1)")
  (net 2 "Net-(C2-Pad1)")
  (net 3 "Net-(C3-Pad1)")
  (net 4 "Net-(LS2-Pad1)")
  (net 5 /RED_1)
  (net 6 /BLACK_1)

  (net_class Default "This is the default net class."
    (clearance 0.765)
    (trace_width 2)
    (via_dia 0.6)
    (via_drill 0.4)
    (uvia_dia 0.3)
    (uvia_drill 0.1)
    (add_net /BLACK_1)
    (add_net /RED_1)
    (add_net "Net-(C1-Pad1)")
    (add_net "Net-(C2-Pad1)")
    (add_net "Net-(C3-Pad1)")
    (add_net "Net-(LS2-Pad1)")
  )

  (module Mounting_Holes:MountingHole_4mm (layer F.Cu) (tedit 5A74CF56) (tstamp 5A74CF39)
    (at 189 98)
    (descr "Mounting Hole 4mm, no annular")
    (tags "mounting hole 4mm no annular")
    (attr virtual)
    (fp_text reference M4 (at 0 -5) (layer F.SilkS)
      (effects (font (size 1 1) (thickness 0.15)))
    )
    (fp_text value MountingHole_4mm (at 0 5) (layer F.Fab)
      (effects (font (size 1 1) (thickness 0.15)))
    )
    (fp_text user %R (at 0.3 0) (layer F.Fab)
      (effects (font (size 1 1) (thickness 0.15)))
    )
    (fp_circle (center 0 0) (end 4 0) (layer Cmts.User) (width 0.15))
    (fp_circle (center 0 0) (end 4.25 0) (layer F.CrtYd) (width 0.05))
    (pad 1 np_thru_hole circle (at 0 0) (size 4 4) (drill 4) (layers *.Cu *.Mask))
  )

  (module Mounting_Holes:MountingHole_4mm (layer F.Cu) (tedit 5A74CF61) (tstamp 5A74CF1A)
    (at 189 25)
    (descr "Mounting Hole 4mm, no annular")
    (tags "mounting hole 4mm no annular")
    (attr virtual)
    (fp_text reference M4 (at 0 -5) (layer F.SilkS)
      (effects (font (size 1 1) (thickness 0.15)))
    )
    (fp_text value MountingHole_4mm (at 0 5) (layer F.Fab)
      (effects (font (size 1 1) (thickness 0.15)))
    )
    (fp_text user %R (at 0.3 0) (layer F.Fab)
      (effects (font (size 1 1) (thickness 0.15)))
    )
    (fp_circle (center 0 0) (end 4 0) (layer Cmts.User) (width 0.15))
    (fp_circle (center 0 0) (end 4.25 0) (layer F.CrtYd) (width 0.05))
    (pad 1 np_thru_hole circle (at 0 0) (size 4 4) (drill 4) (layers *.Cu *.Mask))
  )

  (module Mounting_Holes:MountingHole_4mm (layer F.Cu) (tedit 5A74CF8A) (tstamp 5A74CF0B)
    (at 35 25)
    (descr "Mounting Hole 4mm, no annular")
    (tags "mounting hole 4mm no annular")
    (attr virtual)
    (fp_text reference M4 (at 0 -5) (layer F.SilkS)
      (effects (font (size 1 1) (thickness 0.15)))
    )
    (fp_text value MountingHole_4mm (at 0 5) (layer F.Fab)
      (effects (font (size 1 1) (thickness 0.15)))
    )
    (fp_text user %R (at 0.3 0) (layer F.Fab)
      (effects (font (size 1 1) (thickness 0.15)))
    )
    (fp_circle (center 0 0) (end 4 0) (layer Cmts.User) (width 0.15))
    (fp_circle (center 0 0) (end 4.25 0) (layer F.CrtYd) (width 0.05))
    (pad 1 np_thru_hole circle (at 0 0) (size 4 4) (drill 4) (layers *.Cu *.Mask))
  )

  (module Mounting_Holes:MountingHole_3.5mm (layer F.Cu) (tedit 5A74CDC1) (tstamp 5A6BC6AB)
    (at 177 73)
    (descr "Mounting Hole 3.5mm, no annular")
    (tags "mounting hole 3.5mm no annular")
    (attr virtual)
    (fp_text reference 3.5mm (at 0 -4.5) (layer F.SilkS)
      (effects (font (size 1 1) (thickness 0.15)))
    )
    (fp_text value MountingHole_3.5mm (at 0 4.5) (layer F.Fab)
      (effects (font (size 1 1) (thickness 0.15)))
    )
    (fp_text user %R (at 0.3 0) (layer F.Fab)
      (effects (font (size 1 1) (thickness 0.15)))
    )
    (fp_circle (center 0 0) (end 3.5 0) (layer Cmts.User) (width 0.15))
    (fp_circle (center 0 0) (end 3.75 0) (layer F.CrtYd) (width 0.05))
    (pad 1 np_thru_hole circle (at 0 0) (size 3.5 3.5) (drill 3.5) (layers *.Cu *.Mask))
  )

  (module Capacitors_THT:C_Axial_L22.0mm_D10.5mm_P27.50mm_Horizontal (layer F.Cu) (tedit 58765D06) (tstamp 58F7ACD3)
    (at 141.5 28 180)
    (descr "C, Axial series, Axial, Horizontal, pin pitch=27.5mm, , length*diameter=22*10.5mm^2, http://cdn-reichelt.de/documents/datenblatt/B300/STYROFLEX.pdf")
    (tags "C Axial series Axial Horizontal pin pitch 27.5mm  length 22mm diameter 10.5mm")
    (path /58F7A5A8)
    (fp_text reference C1 (at 13.75 -6.31 180) (layer F.SilkS)
      (effects (font (size 1 1) (thickness 0.15)))
    )
    (fp_text value 1.5uF (at 13.75 6.31 180) (layer F.Fab)
      (effects (font (size 1 1) (thickness 0.15)))
    )
    (fp_line (start 2.75 -5.25) (end 2.75 5.25) (layer F.Fab) (width 0.1))
    (fp_line (start 2.75 5.25) (end 24.75 5.25) (layer F.Fab) (width 0.1))
    (fp_line (start 24.75 5.25) (end 24.75 -5.25) (layer F.Fab) (width 0.1))
    (fp_line (start 24.75 -5.25) (end 2.75 -5.25) (layer F.Fab) (width 0.1))
    (fp_line (start 0 0) (end 2.75 0) (layer F.Fab) (width 0.1))
    (fp_line (start 27.5 0) (end 24.75 0) (layer F.Fab) (width 0.1))
    (fp_line (start 2.69 -5.31) (end 2.69 5.31) (layer F.SilkS) (width 0.12))
    (fp_line (start 2.69 5.31) (end 24.81 5.31) (layer F.SilkS) (width 0.12))
    (fp_line (start 24.81 5.31) (end 24.81 -5.31) (layer F.SilkS) (width 0.12))
    (fp_line (start 24.81 -5.31) (end 2.69 -5.31) (layer F.SilkS) (width 0.12))
    (fp_line (start 0.98 0) (end 2.69 0) (layer F.SilkS) (width 0.12))
    (fp_line (start 26.52 0) (end 24.81 0) (layer F.SilkS) (width 0.12))
    (fp_line (start -1.05 -5.6) (end -1.05 5.6) (layer F.CrtYd) (width 0.05))
    (fp_line (start -1.05 5.6) (end 28.55 5.6) (layer F.CrtYd) (width 0.05))
    (fp_line (start 28.55 5.6) (end 28.55 -5.6) (layer F.CrtYd) (width 0.05))
    (fp_line (start 28.55 -5.6) (end -1.05 -5.6) (layer F.CrtYd) (width 0.05))
    (pad 1 thru_hole circle (at 0 0 180) (size 1.6 1.6) (drill 0.8) (layers *.Cu *.Mask)
      (net 1 "Net-(C1-Pad1)"))
    (pad 2 thru_hole oval (at 27.5 0 180) (size 1.6 1.6) (drill 0.8) (layers *.Cu *.Mask)
      (net 5 /RED_1))
    (model Capacitors_THT.3dshapes/C_Axial_L22.0mm_D10.5mm_P27.50mm_Horizontal.wrl
      (at (xyz 0 0 0))
      (scale (xyz 0.393701 0.393701 0.393701))
      (rotate (xyz 0 0 0))
    )
  )

  (module Capacitors_THT:C_Axial_L22.0mm_D9.5mm_P27.50mm_Horizontal (layer F.Cu) (tedit 58765D06) (tstamp 58F7ACD9)
    (at 141.5 41 180)
    (descr "C, Axial series, Axial, Horizontal, pin pitch=27.5mm, , length*diameter=22*9.5mm^2, http://cdn-reichelt.de/documents/datenblatt/B300/STYROFLEX.pdf")
    (tags "C Axial series Axial Horizontal pin pitch 27.5mm  length 22mm diameter 9.5mm")
    (path /58F7A63D)
    (fp_text reference C2 (at 13.75 -5.81 180) (layer F.SilkS)
      (effects (font (size 1 1) (thickness 0.15)))
    )
    (fp_text value 0.22uF (at 13.75 5.81 180) (layer F.Fab)
      (effects (font (size 1 1) (thickness 0.15)))
    )
    (fp_line (start 2.75 -4.75) (end 2.75 4.75) (layer F.Fab) (width 0.1))
    (fp_line (start 2.75 4.75) (end 24.75 4.75) (layer F.Fab) (width 0.1))
    (fp_line (start 24.75 4.75) (end 24.75 -4.75) (layer F.Fab) (width 0.1))
    (fp_line (start 24.75 -4.75) (end 2.75 -4.75) (layer F.Fab) (width 0.1))
    (fp_line (start 0 0) (end 2.75 0) (layer F.Fab) (width 0.1))
    (fp_line (start 27.5 0) (end 24.75 0) (layer F.Fab) (width 0.1))
    (fp_line (start 2.69 -4.81) (end 2.69 4.81) (layer F.SilkS) (width 0.12))
    (fp_line (start 2.69 4.81) (end 24.81 4.81) (layer F.SilkS) (width 0.12))
    (fp_line (start 24.81 4.81) (end 24.81 -4.81) (layer F.SilkS) (width 0.12))
    (fp_line (start 24.81 -4.81) (end 2.69 -4.81) (layer F.SilkS) (width 0.12))
    (fp_line (start 0.98 0) (end 2.69 0) (layer F.SilkS) (width 0.12))
    (fp_line (start 26.52 0) (end 24.81 0) (layer F.SilkS) (width 0.12))
    (fp_line (start -1.05 -5.1) (end -1.05 5.1) (layer F.CrtYd) (width 0.05))
    (fp_line (start -1.05 5.1) (end 28.55 5.1) (layer F.CrtYd) (width 0.05))
    (fp_line (start 28.55 5.1) (end 28.55 -5.1) (layer F.CrtYd) (width 0.05))
    (fp_line (start 28.55 -5.1) (end -1.05 -5.1) (layer F.CrtYd) (width 0.05))
    (pad 1 thru_hole circle (at 0 0 180) (size 1.6 1.6) (drill 0.8) (layers *.Cu *.Mask)
      (net 2 "Net-(C2-Pad1)"))
    (pad 2 thru_hole oval (at 27.5 0 180) (size 1.6 1.6) (drill 0.8) (layers *.Cu *.Mask)
      (net 5 /RED_1))
    (model Capacitors_THT.3dshapes/C_Axial_L22.0mm_D9.5mm_P27.50mm_Horizontal.wrl
      (at (xyz 0 0 0))
      (scale (xyz 0.393701 0.393701 0.393701))
      (rotate (xyz 0 0 0))
    )
  )

  (module Connectors_Terminal_Blocks:TerminalBlock_Pheonix_PT-3.5mm_2pol (layer F.Cu) (tedit 0) (tstamp 58F7ACEB)
    (at 154.5 92)
    (descr "2-way 3.5mm pitch terminal block, Phoenix PT series")
    (path /58F7A754)
    (fp_text reference J1 (at 1.75 -4.3) (layer F.SilkS)
      (effects (font (size 1 1) (thickness 0.15)))
    )
    (fp_text value Screw_Terminal_1x02 (at 1.75 6) (layer F.Fab)
      (effects (font (size 1 1) (thickness 0.15)))
    )
    (fp_line (start -1.9 -3.3) (end 5.4 -3.3) (layer F.CrtYd) (width 0.05))
    (fp_line (start -1.9 4.7) (end -1.9 -3.3) (layer F.CrtYd) (width 0.05))
    (fp_line (start 5.4 4.7) (end -1.9 4.7) (layer F.CrtYd) (width 0.05))
    (fp_line (start 5.4 -3.3) (end 5.4 4.7) (layer F.CrtYd) (width 0.05))
    (fp_line (start 1.75 4.1) (end 1.75 4.5) (layer F.SilkS) (width 0.15))
    (fp_line (start -1.75 3) (end 5.25 3) (layer F.SilkS) (width 0.15))
    (fp_line (start -1.75 4.1) (end 5.25 4.1) (layer F.SilkS) (width 0.15))
    (fp_line (start -1.75 -3.1) (end -1.75 4.5) (layer F.SilkS) (width 0.15))
    (fp_line (start 5.25 4.5) (end 5.25 -3.1) (layer F.SilkS) (width 0.15))
    (fp_line (start 5.25 -3.1) (end -1.75 -3.1) (layer F.SilkS) (width 0.15))
    (pad 2 thru_hole circle (at 3.5 0) (size 2.4 2.4) (drill 1.2) (layers *.Cu *.Mask)
      (net 6 /BLACK_1))
    (pad 1 thru_hole rect (at 0 0) (size 2.4 2.4) (drill 1.2) (layers *.Cu *.Mask)
      (net 5 /RED_1))
    (model Terminal_Blocks.3dshapes/TerminalBlock_Pheonix_PT-3.5mm_2pol.wrl
      (at (xyz 0 0 0))
      (scale (xyz 1 1 1))
      (rotate (xyz 0 0 0))
    )
  )

  (module Inductors_THT:L_Toroid_Vertical_L25.4mm_W14.7mm_P12.20mm_Vishay_TJ5_BigPads (layer F.Cu) (tedit 5880B84E) (tstamp 58F7ACF7)
    (at 177 52.8)
    (descr "L_Toroid, Vertical series, Radial, pin pitch=12.20mm, , length*width=25.4*14.7mm^2, Vishay, TJ5, BigPads, http://www.vishay.com/docs/34079/tj.pdf")
    (tags "L_Toroid Vertical series Radial pin pitch 12.20mm  length 25.4mm width 14.7mm Vishay TJ5 BigPads")
    (path /58F7A66E)
    (fp_text reference L2 (at 0 -2.75) (layer F.SilkS)
      (effects (font (size 1 1) (thickness 0.15)))
    )
    (fp_text value 0.35mH (at 0 14.95) (layer F.Fab)
      (effects (font (size 1 1) (thickness 0.15)))
    )
    (fp_line (start -12.7 -1.25) (end -12.7 13.45) (layer F.Fab) (width 0.1))
    (fp_line (start -12.7 13.45) (end 12.7 13.45) (layer F.Fab) (width 0.1))
    (fp_line (start 12.7 13.45) (end 12.7 -1.25) (layer F.Fab) (width 0.1))
    (fp_line (start 12.7 -1.25) (end -12.7 -1.25) (layer F.Fab) (width 0.1))
    (fp_line (start -12.7 -1.25) (end -11.43 13.45) (layer F.Fab) (width 0.1))
    (fp_line (start -10.16 -1.25) (end -8.89 13.45) (layer F.Fab) (width 0.1))
    (fp_line (start -7.62 -1.25) (end -6.35 13.45) (layer F.Fab) (width 0.1))
    (fp_line (start -5.08 -1.25) (end -3.81 13.45) (layer F.Fab) (width 0.1))
    (fp_line (start -2.54 -1.25) (end -1.27 13.45) (layer F.Fab) (width 0.1))
    (fp_line (start 0 -1.25) (end 1.27 13.45) (layer F.Fab) (width 0.1))
    (fp_line (start 2.54 -1.25) (end 3.81 13.45) (layer F.Fab) (width 0.1))
    (fp_line (start 5.08 -1.25) (end 6.35 13.45) (layer F.Fab) (width 0.1))
    (fp_line (start 7.62 -1.25) (end 8.89 13.45) (layer F.Fab) (width 0.1))
    (fp_line (start 10.16 -1.25) (end 11.43 13.45) (layer F.Fab) (width 0.1))
    (fp_line (start -12.76 -1.31) (end -1.127 -1.31) (layer F.SilkS) (width 0.12))
    (fp_line (start 1.127 -1.31) (end 12.76 -1.31) (layer F.SilkS) (width 0.12))
    (fp_line (start -12.76 13.51) (end -1.127 13.51) (layer F.SilkS) (width 0.12))
    (fp_line (start 1.127 13.51) (end 12.76 13.51) (layer F.SilkS) (width 0.12))
    (fp_line (start -12.76 -1.31) (end -12.76 13.51) (layer F.SilkS) (width 0.12))
    (fp_line (start 12.76 -1.31) (end 12.76 13.51) (layer F.SilkS) (width 0.12))
    (fp_line (start -13.05 -1.75) (end -13.05 13.95) (layer F.CrtYd) (width 0.05))
    (fp_line (start -13.05 13.95) (end 13.05 13.95) (layer F.CrtYd) (width 0.05))
    (fp_line (start 13.05 13.95) (end 13.05 -1.75) (layer F.CrtYd) (width 0.05))
    (fp_line (start 13.05 -1.75) (end -13.05 -1.75) (layer F.CrtYd) (width 0.05))
    (pad 1 thru_hole circle (at 0 0) (size 3 3) (drill 1.5) (layers *.Cu *.Mask)
      (net 1 "Net-(C1-Pad1)"))
    (pad 2 thru_hole circle (at 0 12.2) (size 3 3) (drill 1.5) (layers *.Cu *.Mask)
      (net 6 /BLACK_1))
    (model Inductors_THT.3dshapes/L_Toroid_Vertical_L25.4mm_W14.7mm_P12.20mm_Vishay_TJ5_BigPads.wrl
      (at (xyz 0 0 0))
      (scale (xyz 0.393701 0.393701 0.393701))
      (rotate (xyz 0 0 0))
    )
  )

  (module Connectors_Terminal_Blocks:TerminalBlock_Pheonix_PT-3.5mm_2pol (layer F.Cu) (tedit 0) (tstamp 58F7ACFD)
    (at 161.5 92)
    (descr "2-way 3.5mm pitch terminal block, Phoenix PT series")
    (path /58F7A840)
    (fp_text reference LS1 (at 1.75 -4.3) (layer F.SilkS)
      (effects (font (size 1 1) (thickness 0.15)))
    )
    (fp_text value "HIVI B4N" (at 1.75 6) (layer F.Fab)
      (effects (font (size 1 1) (thickness 0.15)))
    )
    (fp_line (start -1.9 -3.3) (end 5.4 -3.3) (layer F.CrtYd) (width 0.05))
    (fp_line (start -1.9 4.7) (end -1.9 -3.3) (layer F.CrtYd) (width 0.05))
    (fp_line (start 5.4 4.7) (end -1.9 4.7) (layer F.CrtYd) (width 0.05))
    (fp_line (start 5.4 -3.3) (end 5.4 4.7) (layer F.CrtYd) (width 0.05))
    (fp_line (start 1.75 4.1) (end 1.75 4.5) (layer F.SilkS) (width 0.15))
    (fp_line (start -1.75 3) (end 5.25 3) (layer F.SilkS) (width 0.15))
    (fp_line (start -1.75 4.1) (end 5.25 4.1) (layer F.SilkS) (width 0.15))
    (fp_line (start -1.75 -3.1) (end -1.75 4.5) (layer F.SilkS) (width 0.15))
    (fp_line (start 5.25 4.5) (end 5.25 -3.1) (layer F.SilkS) (width 0.15))
    (fp_line (start 5.25 -3.1) (end -1.75 -3.1) (layer F.SilkS) (width 0.15))
    (pad 2 thru_hole circle (at 3.5 0) (size 2.4 2.4) (drill 1.2) (layers *.Cu *.Mask)
      (net 6 /BLACK_1))
    (pad 1 thru_hole rect (at 0 0) (size 2.4 2.4) (drill 1.2) (layers *.Cu *.Mask)
      (net 2 "Net-(C2-Pad1)"))
    (model Terminal_Blocks.3dshapes/TerminalBlock_Pheonix_PT-3.5mm_2pol.wrl
      (at (xyz 0 0 0))
      (scale (xyz 1 1 1))
      (rotate (xyz 0 0 0))
    )
  )

  (module Connectors_Terminal_Blocks:TerminalBlock_Pheonix_PT-3.5mm_2pol (layer F.Cu) (tedit 0) (tstamp 58F7AD03)
    (at 168.5 92)
    (descr "2-way 3.5mm pitch terminal block, Phoenix PT series")
    (path /58F7A984)
    (fp_text reference LS2 (at 1.75 -4.3) (layer F.SilkS)
      (effects (font (size 1 1) (thickness 0.15)))
    )
    (fp_text value "Daytona ND20FA" (at 1.75 6) (layer F.Fab)
      (effects (font (size 1 1) (thickness 0.15)))
    )
    (fp_line (start -1.9 -3.3) (end 5.4 -3.3) (layer F.CrtYd) (width 0.05))
    (fp_line (start -1.9 4.7) (end -1.9 -3.3) (layer F.CrtYd) (width 0.05))
    (fp_line (start 5.4 4.7) (end -1.9 4.7) (layer F.CrtYd) (width 0.05))
    (fp_line (start 5.4 -3.3) (end 5.4 4.7) (layer F.CrtYd) (width 0.05))
    (fp_line (start 1.75 4.1) (end 1.75 4.5) (layer F.SilkS) (width 0.15))
    (fp_line (start -1.75 3) (end 5.25 3) (layer F.SilkS) (width 0.15))
    (fp_line (start -1.75 4.1) (end 5.25 4.1) (layer F.SilkS) (width 0.15))
    (fp_line (start -1.75 -3.1) (end -1.75 4.5) (layer F.SilkS) (width 0.15))
    (fp_line (start 5.25 4.5) (end 5.25 -3.1) (layer F.SilkS) (width 0.15))
    (fp_line (start 5.25 -3.1) (end -1.75 -3.1) (layer F.SilkS) (width 0.15))
    (pad 2 thru_hole circle (at 3.5 0) (size 2.4 2.4) (drill 1.2) (layers *.Cu *.Mask)
      (net 6 /BLACK_1))
    (pad 1 thru_hole rect (at 0 0) (size 2.4 2.4) (drill 1.2) (layers *.Cu *.Mask)
      (net 4 "Net-(LS2-Pad1)"))
    (model Terminal_Blocks.3dshapes/TerminalBlock_Pheonix_PT-3.5mm_2pol.wrl
      (at (xyz 0 0 0))
      (scale (xyz 1 1 1))
      (rotate (xyz 0 0 0))
    )
  )

  (module Resistors_THT:R_Axial_Power_L50.0mm_W9.0mm_P60.96mm (layer F.Cu) (tedit 5874F706) (tstamp 58F7AD09)
    (at 92 94.96 90)
    (descr "Resistor, Axial_Power series, Axial, Horizontal, pin pitch=60.96mm, 11W, length*diameter=50*9mm^2, http://cdn-reichelt.de/documents/datenblatt/B400/5WAXIAL_9WAXIAL_11WAXIAL_17WAXIAL%23YAG.pdf")
    (tags "Resistor Axial_Power series Axial Horizontal pin pitch 60.96mm 11W length 50mm diameter 9mm")
    (path /58F7A565)
    (fp_text reference R1 (at 30.48 -5.56 90) (layer F.SilkS)
      (effects (font (size 1 1) (thickness 0.15)))
    )
    (fp_text value 60R (at 30.48 5.56 90) (layer F.Fab)
      (effects (font (size 1 1) (thickness 0.15)))
    )
    (fp_line (start 5.48 -4.5) (end 5.48 4.5) (layer F.Fab) (width 0.1))
    (fp_line (start 5.48 4.5) (end 55.48 4.5) (layer F.Fab) (width 0.1))
    (fp_line (start 55.48 4.5) (end 55.48 -4.5) (layer F.Fab) (width 0.1))
    (fp_line (start 55.48 -4.5) (end 5.48 -4.5) (layer F.Fab) (width 0.1))
    (fp_line (start 0 0) (end 5.48 0) (layer F.Fab) (width 0.1))
    (fp_line (start 60.96 0) (end 55.48 0) (layer F.Fab) (width 0.1))
    (fp_line (start 5.42 -4.56) (end 5.42 4.56) (layer F.SilkS) (width 0.12))
    (fp_line (start 5.42 4.56) (end 55.54 4.56) (layer F.SilkS) (width 0.12))
    (fp_line (start 55.54 4.56) (end 55.54 -4.56) (layer F.SilkS) (width 0.12))
    (fp_line (start 55.54 -4.56) (end 5.42 -4.56) (layer F.SilkS) (width 0.12))
    (fp_line (start 1.38 0) (end 5.42 0) (layer F.SilkS) (width 0.12))
    (fp_line (start 59.58 0) (end 55.54 0) (layer F.SilkS) (width 0.12))
    (fp_line (start -1.45 -4.85) (end -1.45 4.85) (layer F.CrtYd) (width 0.05))
    (fp_line (start -1.45 4.85) (end 62.45 4.85) (layer F.CrtYd) (width 0.05))
    (fp_line (start 62.45 4.85) (end 62.45 -4.85) (layer F.CrtYd) (width 0.05))
    (fp_line (start 62.45 -4.85) (end -1.45 -4.85) (layer F.CrtYd) (width 0.05))
    (pad 1 thru_hole circle (at 0 0 90) (size 2.4 2.4) (drill 1.2) (layers *.Cu *.Mask)
      (net 4 "Net-(LS2-Pad1)"))
    (pad 2 thru_hole oval (at 60.96 0 90) (size 2.4 2.4) (drill 1.2) (layers *.Cu *.Mask)
      (net 3 "Net-(C3-Pad1)"))
    (model Resistors_THT.3dshapes/R_Axial_Power_L50.0mm_W9.0mm_P60.96mm.wrl
      (at (xyz 0 0 0))
      (scale (xyz 0.393701 0.393701 0.393701))
      (rotate (xyz 0 0 0))
    )
  )

  (module Resistors_THT:R_Axial_Power_L50.0mm_W9.0mm_P55.88mm (layer F.Cu) (tedit 5874F706) (tstamp 58F7AD0F)
    (at 103 93.88 90)
    (descr "Resistor, Axial_Power series, Axial, Horizontal, pin pitch=55.88mm, 11W, length*diameter=50*9mm^2, http://cdn-reichelt.de/documents/datenblatt/B400/5WAXIAL_9WAXIAL_11WAXIAL_17WAXIAL%23YAG.pdf")
    (tags "Resistor Axial_Power series Axial Horizontal pin pitch 55.88mm 11W length 50mm diameter 9mm")
    (path /58F7A52C)
    (fp_text reference R2 (at 27.94 -5.56 90) (layer F.SilkS)
      (effects (font (size 1 1) (thickness 0.15)))
    )
    (fp_text value 10R (at 27.94 5.56 90) (layer F.Fab)
      (effects (font (size 1 1) (thickness 0.15)))
    )
    (fp_line (start 2.94 -4.5) (end 2.94 4.5) (layer F.Fab) (width 0.1))
    (fp_line (start 2.94 4.5) (end 52.94 4.5) (layer F.Fab) (width 0.1))
    (fp_line (start 52.94 4.5) (end 52.94 -4.5) (layer F.Fab) (width 0.1))
    (fp_line (start 52.94 -4.5) (end 2.94 -4.5) (layer F.Fab) (width 0.1))
    (fp_line (start 0 0) (end 2.94 0) (layer F.Fab) (width 0.1))
    (fp_line (start 55.88 0) (end 52.94 0) (layer F.Fab) (width 0.1))
    (fp_line (start 2.88 -4.56) (end 2.88 4.56) (layer F.SilkS) (width 0.12))
    (fp_line (start 2.88 4.56) (end 53 4.56) (layer F.SilkS) (width 0.12))
    (fp_line (start 53 4.56) (end 53 -4.56) (layer F.SilkS) (width 0.12))
    (fp_line (start 53 -4.56) (end 2.88 -4.56) (layer F.SilkS) (width 0.12))
    (fp_line (start 1.38 0) (end 2.88 0) (layer F.SilkS) (width 0.12))
    (fp_line (start 54.5 0) (end 53 0) (layer F.SilkS) (width 0.12))
    (fp_line (start -1.45 -4.85) (end -1.45 4.85) (layer F.CrtYd) (width 0.05))
    (fp_line (start -1.45 4.85) (end 57.35 4.85) (layer F.CrtYd) (width 0.05))
    (fp_line (start 57.35 4.85) (end 57.35 -4.85) (layer F.CrtYd) (width 0.05))
    (fp_line (start 57.35 -4.85) (end -1.45 -4.85) (layer F.CrtYd) (width 0.05))
    (pad 1 thru_hole circle (at 0 0 90) (size 2.4 2.4) (drill 1.2) (layers *.Cu *.Mask)
      (net 4 "Net-(LS2-Pad1)"))
    (pad 2 thru_hole oval (at 55.88 0 90) (size 2.4 2.4) (drill 1.2) (layers *.Cu *.Mask)
      (net 6 /BLACK_1))
    (model Resistors_THT.3dshapes/R_Axial_Power_L50.0mm_W9.0mm_P55.88mm.wrl
      (at (xyz 0 0 0))
      (scale (xyz 0.393701 0.393701 0.393701))
      (rotate (xyz 0 0 0))
    )
  )

  (module Capacitors_THT:CP_Axial_L29.0mm_D13.0mm_P35.00mm_Horizontal (layer F.Cu) (tedit 597BC7C3) (tstamp 5A6BBCDE)
    (at 142 92 90)
    (descr "CP, Axial series, Axial, Horizontal, pin pitch=35mm, , length*diameter=29*13mm^2, Electrolytic Capacitor, , http://www.kemet.com/Lists/ProductCatalog/Attachments/424/KEM_AC102.pdf")
    (tags "CP Axial series Axial Horizontal pin pitch 35mm  length 29mm diameter 13mm Electrolytic Capacitor")
    (path /58F7A5D7)
    (fp_text reference C3 (at 17.5 -7.56 90) (layer F.SilkS)
      (effects (font (size 1 1) (thickness 0.15)))
    )
    (fp_text value 2.2uF (at 17.5 7.56 90) (layer F.Fab)
      (effects (font (size 1 1) (thickness 0.15)))
    )
    (fp_line (start 3 -6.5) (end 3 6.5) (layer F.Fab) (width 0.1))
    (fp_line (start 32 -6.5) (end 32 6.5) (layer F.Fab) (width 0.1))
    (fp_line (start 3 -6.5) (end 4.74 -6.5) (layer F.Fab) (width 0.1))
    (fp_line (start 4.74 -6.5) (end 5.64 -5.6) (layer F.Fab) (width 0.1))
    (fp_line (start 5.64 -5.6) (end 6.54 -6.5) (layer F.Fab) (width 0.1))
    (fp_line (start 6.54 -6.5) (end 32 -6.5) (layer F.Fab) (width 0.1))
    (fp_line (start 3 6.5) (end 4.74 6.5) (layer F.Fab) (width 0.1))
    (fp_line (start 4.74 6.5) (end 5.64 5.6) (layer F.Fab) (width 0.1))
    (fp_line (start 5.64 5.6) (end 6.54 6.5) (layer F.Fab) (width 0.1))
    (fp_line (start 6.54 6.5) (end 32 6.5) (layer F.Fab) (width 0.1))
    (fp_line (start 0 0) (end 3 0) (layer F.Fab) (width 0.1))
    (fp_line (start 35 0) (end 32 0) (layer F.Fab) (width 0.1))
    (fp_line (start 4.75 0) (end 6.55 0) (layer F.Fab) (width 0.1))
    (fp_line (start 5.65 -0.9) (end 5.65 0.9) (layer F.Fab) (width 0.1))
    (fp_line (start 4.75 0) (end 6.55 0) (layer F.SilkS) (width 0.12))
    (fp_line (start 5.65 -0.9) (end 5.65 0.9) (layer F.SilkS) (width 0.12))
    (fp_line (start 2.94 -6.56) (end 2.94 6.56) (layer F.SilkS) (width 0.12))
    (fp_line (start 32.06 -6.56) (end 32.06 6.56) (layer F.SilkS) (width 0.12))
    (fp_line (start 2.94 -6.56) (end 4.74 -6.56) (layer F.SilkS) (width 0.12))
    (fp_line (start 4.74 -6.56) (end 5.64 -5.66) (layer F.SilkS) (width 0.12))
    (fp_line (start 5.64 -5.66) (end 6.54 -6.56) (layer F.SilkS) (width 0.12))
    (fp_line (start 6.54 -6.56) (end 32.06 -6.56) (layer F.SilkS) (width 0.12))
    (fp_line (start 2.94 6.56) (end 4.74 6.56) (layer F.SilkS) (width 0.12))
    (fp_line (start 4.74 6.56) (end 5.64 5.66) (layer F.SilkS) (width 0.12))
    (fp_line (start 5.64 5.66) (end 6.54 6.56) (layer F.SilkS) (width 0.12))
    (fp_line (start 6.54 6.56) (end 32.06 6.56) (layer F.SilkS) (width 0.12))
    (fp_line (start 1.38 0) (end 2.94 0) (layer F.SilkS) (width 0.12))
    (fp_line (start 33.62 0) (end 32.06 0) (layer F.SilkS) (width 0.12))
    (fp_line (start -1.45 -6.85) (end -1.45 6.85) (layer F.CrtYd) (width 0.05))
    (fp_line (start -1.45 6.85) (end 36.45 6.85) (layer F.CrtYd) (width 0.05))
    (fp_line (start 36.45 6.85) (end 36.45 -6.85) (layer F.CrtYd) (width 0.05))
    (fp_line (start 36.45 -6.85) (end -1.45 -6.85) (layer F.CrtYd) (width 0.05))
    (fp_text user %R (at 17.5 0 90) (layer F.Fab)
      (effects (font (size 1 1) (thickness 0.15)))
    )
    (pad 1 thru_hole rect (at 0 0 90) (size 2.4 2.4) (drill 1.2) (layers *.Cu *.Mask)
      (net 3 "Net-(C3-Pad1)"))
    (pad 2 thru_hole oval (at 35 0 90) (size 2.4 2.4) (drill 1.2) (layers *.Cu *.Mask)
      (net 1 "Net-(C1-Pad1)"))
    (model ${KISYS3DMOD}/Capacitors_THT.3dshapes/CP_Axial_L29.0mm_D13.0mm_P35.00mm_Horizontal.wrl
      (at (xyz 0 0 0))
      (scale (xyz 1 1 1))
      (rotate (xyz 0 0 0))
    )
  )

  (module Capacitors_THT:CP_Axial_L34.5mm_D20.0mm_P41.00mm_Horizontal (layer F.Cu) (tedit 597BC7C3) (tstamp 5A6BBCE3)
    (at 123 94 90)
    (descr "CP, Axial series, Axial, Horizontal, pin pitch=41mm, , length*diameter=34.5*20mm^2, Electrolytic Capacitor, , http://www.kemet.com/Lists/ProductCatalog/Attachments/424/KEM_AC102.pdf")
    (tags "CP Axial series Axial Horizontal pin pitch 41mm  length 34.5mm diameter 20mm Electrolytic Capacitor")
    (path /58F7A5F8)
    (fp_text reference C4 (at 20.5 -11.06 90) (layer F.SilkS)
      (effects (font (size 1 1) (thickness 0.15)))
    )
    (fp_text value 6.8uF (at 20.5 11.06 90) (layer F.Fab)
      (effects (font (size 1 1) (thickness 0.15)))
    )
    (fp_line (start 3.25 -10) (end 3.25 10) (layer F.Fab) (width 0.1))
    (fp_line (start 37.75 -10) (end 37.75 10) (layer F.Fab) (width 0.1))
    (fp_line (start 3.25 -10) (end 5.29 -10) (layer F.Fab) (width 0.1))
    (fp_line (start 5.29 -10) (end 6.34 -8.95) (layer F.Fab) (width 0.1))
    (fp_line (start 6.34 -8.95) (end 7.39 -10) (layer F.Fab) (width 0.1))
    (fp_line (start 7.39 -10) (end 37.75 -10) (layer F.Fab) (width 0.1))
    (fp_line (start 3.25 10) (end 5.29 10) (layer F.Fab) (width 0.1))
    (fp_line (start 5.29 10) (end 6.34 8.95) (layer F.Fab) (width 0.1))
    (fp_line (start 6.34 8.95) (end 7.39 10) (layer F.Fab) (width 0.1))
    (fp_line (start 7.39 10) (end 37.75 10) (layer F.Fab) (width 0.1))
    (fp_line (start 0 0) (end 3.25 0) (layer F.Fab) (width 0.1))
    (fp_line (start 41 0) (end 37.75 0) (layer F.Fab) (width 0.1))
    (fp_line (start 5.3 0) (end 7.4 0) (layer F.Fab) (width 0.1))
    (fp_line (start 6.35 -1.05) (end 6.35 1.05) (layer F.Fab) (width 0.1))
    (fp_line (start 5.3 0) (end 7.4 0) (layer F.SilkS) (width 0.12))
    (fp_line (start 6.35 -1.05) (end 6.35 1.05) (layer F.SilkS) (width 0.12))
    (fp_line (start 3.19 -10.06) (end 3.19 10.06) (layer F.SilkS) (width 0.12))
    (fp_line (start 37.81 -10.06) (end 37.81 10.06) (layer F.SilkS) (width 0.12))
    (fp_line (start 3.19 -10.06) (end 5.29 -10.06) (layer F.SilkS) (width 0.12))
    (fp_line (start 5.29 -10.06) (end 6.34 -9.01) (layer F.SilkS) (width 0.12))
    (fp_line (start 6.34 -9.01) (end 7.39 -10.06) (layer F.SilkS) (width 0.12))
    (fp_line (start 7.39 -10.06) (end 37.81 -10.06) (layer F.SilkS) (width 0.12))
    (fp_line (start 3.19 10.06) (end 5.29 10.06) (layer F.SilkS) (width 0.12))
    (fp_line (start 5.29 10.06) (end 6.34 9.01) (layer F.SilkS) (width 0.12))
    (fp_line (start 6.34 9.01) (end 7.39 10.06) (layer F.SilkS) (width 0.12))
    (fp_line (start 7.39 10.06) (end 37.81 10.06) (layer F.SilkS) (width 0.12))
    (fp_line (start 1.58 0) (end 3.19 0) (layer F.SilkS) (width 0.12))
    (fp_line (start 39.42 0) (end 37.81 0) (layer F.SilkS) (width 0.12))
    (fp_line (start -1.65 -10.35) (end -1.65 10.35) (layer F.CrtYd) (width 0.05))
    (fp_line (start -1.65 10.35) (end 42.65 10.35) (layer F.CrtYd) (width 0.05))
    (fp_line (start 42.65 10.35) (end 42.65 -10.35) (layer F.CrtYd) (width 0.05))
    (fp_line (start 42.65 -10.35) (end -1.65 -10.35) (layer F.CrtYd) (width 0.05))
    (fp_text user %R (at 20.5 0 90) (layer F.Fab)
      (effects (font (size 1 1) (thickness 0.15)))
    )
    (pad 1 thru_hole rect (at 0 0 90) (size 2.8 2.8) (drill 1.4) (layers *.Cu *.Mask)
      (net 2 "Net-(C2-Pad1)"))
    (pad 2 thru_hole oval (at 41 0 90) (size 2.8 2.8) (drill 1.4) (layers *.Cu *.Mask)
      (net 6 /BLACK_1))
    (model ${KISYS3DMOD}/Capacitors_THT.3dshapes/CP_Axial_L34.5mm_D20.0mm_P41.00mm_Horizontal.wrl
      (at (xyz 0 0 0))
      (scale (xyz 1 1 1))
      (rotate (xyz 0 0 0))
    )
  )

  (module Mounting_Holes:MountingHole_3.5mm (layer F.Cu) (tedit 5A74CDBC) (tstamp 5A6BC6A1)
    (at 177 44)
    (descr "Mounting Hole 3.5mm, no annular")
    (tags "mounting hole 3.5mm no annular")
    (attr virtual)
    (fp_text reference 3.5mm (at 1 -5) (layer F.SilkS)
      (effects (font (size 1 1) (thickness 0.15)))
    )
    (fp_text value MountingHole_3.5mm (at 0 4.5) (layer F.Fab)
      (effects (font (size 1 1) (thickness 0.15)))
    )
    (fp_text user %R (at 0.3 0) (layer F.Fab)
      (effects (font (size 1 1) (thickness 0.15)))
    )
    (fp_circle (center 0 0) (end 3.5 0) (layer Cmts.User) (width 0.15))
    (fp_circle (center 0 0) (end 3.75 0) (layer F.CrtYd) (width 0.05))
    (pad 1 np_thru_hole circle (at 0 0) (size 3.5 3.5) (drill 3.5) (layers *.Cu *.Mask))
  )

  (module test_inductor:1.1mH_Inductor (layer F.Cu) (tedit 5A6BCB13) (tstamp 5A6BCD2D)
    (at 57 60 270)
    (path /58F7A6B3)
    (fp_text reference L1 (at -1 3 270) (layer F.SilkS)
      (effects (font (size 1 1) (thickness 0.15)))
    )
    (fp_text value 1.1mH (at 0 -0.5 270) (layer F.Fab)
      (effects (font (size 1 1) (thickness 0.15)))
    )
    (fp_circle (center 0 0) (end 28 0) (layer F.SilkS) (width 0.15))
    (fp_circle (center 0 0) (end 14 0) (layer F.SilkS) (width 0.15))
    (pad 1 thru_hole circle (at 11 0 270) (size 1.524 1.524) (drill 1.3) (layers *.Cu *.Mask)
      (net 2 "Net-(C2-Pad1)"))
    (pad 1 thru_hole circle (at 11 0 270) (size 1.524 1.524) (drill 1.3) (layers *.Cu *.Mask)
      (net 2 "Net-(C2-Pad1)"))
    (pad 2 thru_hole circle (at 30 0 270) (size 1.524 1.524) (drill 1.3) (layers *.Cu *.Mask)
      (net 5 /RED_1))
  )

  (module Mounting_Holes:MountingHole_3.5mm (layer F.Cu) (tedit 5A74CDCD) (tstamp 5A6BCD82)
    (at 57 51)
    (descr "Mounting Hole 3.5mm, no annular")
    (tags "mounting hole 3.5mm no annular")
    (attr virtual)
    (fp_text reference 3.5mm (at 0 -4.5) (layer F.SilkS)
      (effects (font (size 1 1) (thickness 0.15)))
    )
    (fp_text value MountingHole_3.5mm (at 0 4.5) (layer F.Fab)
      (effects (font (size 1 1) (thickness 0.15)))
    )
    (fp_text user %R (at 0.3 0) (layer F.Fab)
      (effects (font (size 1 1) (thickness 0.15)))
    )
    (fp_circle (center 0 0) (end 3.5 0) (layer Cmts.User) (width 0.15))
    (fp_circle (center 0 0) (end 3.75 0) (layer F.CrtYd) (width 0.05))
    (pad 1 np_thru_hole circle (at 0 0) (size 3.5 3.5) (drill 3.5) (layers *.Cu *.Mask))
  )

  (module Mounting_Holes:MountingHole_3.5mm (layer F.Cu) (tedit 5A74CDB7) (tstamp 5A6BCD89)
    (at 57 27)
    (descr "Mounting Hole 3.5mm, no annular")
    (tags "mounting hole 3.5mm no annular")
    (attr virtual)
    (fp_text reference 3.5mm (at 0 -4.5) (layer F.SilkS)
      (effects (font (size 1 1) (thickness 0.15)))
    )
    (fp_text value MountingHole_3.5mm (at 0 4.5) (layer F.Fab)
      (effects (font (size 1 1) (thickness 0.15)))
    )
    (fp_text user %R (at 0.3 0) (layer F.Fab)
      (effects (font (size 1 1) (thickness 0.15)))
    )
    (fp_circle (center 0 0) (end 3.5 0) (layer Cmts.User) (width 0.15))
    (fp_circle (center 0 0) (end 3.75 0) (layer F.CrtYd) (width 0.05))
    (pad 1 np_thru_hole circle (at 0 0) (size 3.5 3.5) (drill 3.5) (layers *.Cu *.Mask))
  )

  (module Mounting_Holes:MountingHole_4mm (layer F.Cu) (tedit 5A74CF85) (tstamp 5A74CEFB)
    (at 35 98)
    (descr "Mounting Hole 4mm, no annular")
    (tags "mounting hole 4mm no annular")
    (attr virtual)
    (fp_text reference M4 (at 0 -5) (layer F.SilkS)
      (effects (font (size 1 1) (thickness 0.15)))
    )
    (fp_text value MountingHole_4mm (at 0 5) (layer F.Fab)
      (effects (font (size 1 1) (thickness 0.15)))
    )
    (fp_text user %R (at 0.3 0) (layer F.Fab)
      (effects (font (size 1 1) (thickness 0.15)))
    )
    (fp_circle (center 0 0) (end 4 0) (layer Cmts.User) (width 0.15))
    (fp_circle (center 0 0) (end 4.25 0) (layer F.CrtYd) (width 0.05))
    (pad 1 np_thru_hole circle (at 0 0) (size 4 4) (drill 4) (layers *.Cu *.Mask))
  )

  (gr_text 10R (at 103 63) (layer F.SilkS)
    (effects (font (size 1.5 1.5) (thickness 0.3)))
  )
  (gr_text 60R (at 92 63) (layer F.SilkS)
    (effects (font (size 1.5 1.5) (thickness 0.3)))
  )
  (gr_text 0.35mH (at 186 59) (layer F.SilkS)
    (effects (font (size 1.5 1.5) (thickness 0.3)))
  )
  (gr_text 6.8uF (at 123 60) (layer F.SilkS)
    (effects (font (size 1.5 1.5) (thickness 0.3)))
  )
  (gr_text 2.2uF (at 142 64 360) (layer F.SilkS)
    (effects (font (size 1.5 1.5) (thickness 0.3)))
  )
  (gr_text 0.22uF (at 128 40) (layer F.SilkS)
    (effects (font (size 1.5 1.5) (thickness 0.3)))
  )
  (gr_text 1.5uF (at 128 28) (layer F.SilkS)
    (effects (font (size 1.5 1.5) (thickness 0.3)))
  )
  (gr_text 1.1mH (at 64 59 360) (layer F.SilkS)
    (effects (font (size 1.5 1.5) (thickness 0.3)))
  )
  (gr_text Black (at 172 100 90) (layer F.SilkS) (tstamp 5A74CB00)
    (effects (font (size 1.5 1.5) (thickness 0.3)))
  )
  (gr_text Black (at 165 100 90) (layer F.SilkS) (tstamp 5A74CAFE)
    (effects (font (size 1.5 1.5) (thickness 0.3)))
  )
  (gr_text Red (at 168 101 90) (layer F.SilkS) (tstamp 5A74CAFA)
    (effects (font (size 1.5 1.5) (thickness 0.3)))
  )
  (gr_text Red (at 162 101 90) (layer F.SilkS) (tstamp 5A74CAF3)
    (effects (font (size 1.5 1.5) (thickness 0.3)))
  )
  (gr_text Black (at 158 100 90) (layer F.SilkS)
    (effects (font (size 1.5 1.5) (thickness 0.3)))
  )
  (gr_text Red (at 154 101 90) (layer F.SilkS)
    (effects (font (size 1.5 1.5) (thickness 0.3)))
  )
  (gr_text + (at 158 82) (layer F.SilkS)
    (effects (font (size 1.5 1.5) (thickness 0.3)))
  )
  (gr_text Input (at 155 86) (layer F.SilkS)
    (effects (font (size 1.5 1.5) (thickness 0.3)))
  )
  (gr_text Dayton (at 171 86) (layer F.SilkS)
    (effects (font (size 1.5 1.5) (thickness 0.3)))
  )
  (gr_text HiVi (at 163 86) (layer F.SilkS)
    (effects (font (size 1.5 1.5) (thickness 0.3)))
  )
  (dimension 85 (width 0.3) (layer Eco1.User)
    (gr_text "85.000 mm" (at 206.35 61.5 90) (layer Eco1.User)
      (effects (font (size 1.5 1.5) (thickness 0.3)))
    )
    (feature1 (pts (xy 197 19) (xy 207.7 19)))
    (feature2 (pts (xy 197 104) (xy 207.7 104)))
    (crossbar (pts (xy 205 104) (xy 205 19)))
    (arrow1a (pts (xy 205 19) (xy 205.586421 20.126504)))
    (arrow1b (pts (xy 205 19) (xy 204.413579 20.126504)))
    (arrow2a (pts (xy 205 104) (xy 205.586421 102.873496)))
    (arrow2b (pts (xy 205 104) (xy 204.413579 102.873496)))
  )
  (gr_line (start 27 104) (end 27 99) (layer Edge.Cuts) (width 0.15))
  (gr_line (start 110 104) (end 27 104) (layer Edge.Cuts) (width 0.15))
  (gr_line (start 197 104) (end 197 19) (layer Edge.Cuts) (width 0.15))
  (gr_line (start 110 104) (end 197 104) (layer Edge.Cuts) (width 0.15))
  (dimension 170 (width 0.3) (layer Eco1.User)
    (gr_text "170.000 mm" (at 112 1.65) (layer Eco1.User)
      (effects (font (size 1.5 1.5) (thickness 0.3)))
    )
    (feature1 (pts (xy 197 19) (xy 197 0.3)))
    (feature2 (pts (xy 27 19) (xy 27 0.3)))
    (crossbar (pts (xy 27 3) (xy 197 3)))
    (arrow1a (pts (xy 197 3) (xy 195.873496 3.586421)))
    (arrow1b (pts (xy 197 3) (xy 195.873496 2.413579)))
    (arrow2a (pts (xy 27 3) (xy 28.126504 3.586421)))
    (arrow2b (pts (xy 27 3) (xy 28.126504 2.413579)))
  )
  (gr_line (start 27 99) (end 27 19) (angle 90) (layer Edge.Cuts) (width 0.15))
  (gr_line (start 27 19) (end 197 19) (angle 90) (layer Edge.Cuts) (width 0.15))
  (gr_text "Overnight\nSensation" (at 162 29) (layer F.SilkS)
    (effects (font (size 3 3) (thickness 0.3)))
  )

  (segment (start 142 57) (end 146.2 52.8) (width 2) (layer F.Cu) (net 1))
  (segment (start 146.2 52.8) (end 177 52.8) (width 2) (layer F.Cu) (net 1))
  (segment (start 173.487999 52.487999) (end 165.987999 52.487999) (width 2) (layer F.Cu) (net 1))
  (segment (start 165.987999 52.487999) (end 141.5 28) (width 2) (layer F.Cu) (net 1))
  (segment (start 173.8 52.8) (end 173.487999 52.487999) (width 2) (layer F.Cu) (net 1))
  (segment (start 177 52.8) (end 173.8 52.8) (width 2) (layer F.Cu) (net 1))
  (segment (start 141.5 47.5) (end 123 66) (width 2) (layer B.Cu) (net 2))
  (segment (start 123 66) (end 123 94) (width 2) (layer B.Cu) (net 2))
  (segment (start 141.5 41) (end 141.5 47.5) (width 2) (layer B.Cu) (net 2))
  (segment (start 123 94) (end 126.4 94) (width 2) (layer F.Cu) (net 2))
  (segment (start 126.4 94) (end 129.4 97) (width 2) (layer F.Cu) (net 2))
  (segment (start 129.4 97) (end 159.7 97) (width 2) (layer F.Cu) (net 2))
  (segment (start 159.7 97) (end 161.5 95.2) (width 2) (layer F.Cu) (net 2))
  (segment (start 161.5 95.2) (end 161.5 92) (width 2) (layer F.Cu) (net 2))
  (segment (start 123 94) (end 123 90.6) (width 2) (layer F.Cu) (net 2))
  (segment (start 58.07763 71) (end 57 71) (width 2) (layer F.Cu) (net 2))
  (segment (start 123 90.6) (end 103.4 71) (width 2) (layer F.Cu) (net 2))
  (segment (start 103.4 71) (end 58.07763 71) (width 2) (layer F.Cu) (net 2))
  (segment (start 92 45.2) (end 92 34) (width 2) (layer F.Cu) (net 3))
  (segment (start 142 92) (end 138.8 92) (width 2) (layer F.Cu) (net 3))
  (segment (start 138.8 92) (end 92 45.2) (width 2) (layer F.Cu) (net 3))
  (segment (start 166 101) (end 168.5 98.5) (width 2) (layer F.Cu) (net 4))
  (segment (start 168.5 98.5) (end 168.5 92) (width 2) (layer F.Cu) (net 4))
  (segment (start 110.12 101) (end 166 101) (width 2) (layer F.Cu) (net 4))
  (segment (start 103 93.88) (end 110.12 101) (width 2) (layer F.Cu) (net 4))
  (segment (start 92 94.96) (end 101.92 94.96) (width 2) (layer F.Cu) (net 4))
  (segment (start 101.92 94.96) (end 103 93.88) (width 2) (layer F.Cu) (net 4))
  (segment (start 114 54.7) (end 114 41) (width 2) (layer F.Cu) (net 5))
  (segment (start 154.5 92) (end 151.3 92) (width 2) (layer F.Cu) (net 5))
  (segment (start 151.3 92) (end 114 54.7) (width 2) (layer F.Cu) (net 5))
  (segment (start 57 90) (end 41 74) (width 2) (layer F.Cu) (net 5))
  (segment (start 41 74) (end 41 45) (width 2) (layer F.Cu) (net 5))
  (segment (start 41 45) (end 48 38) (width 2) (layer F.Cu) (net 5))
  (segment (start 48 38) (end 73 38) (width 2) (layer F.Cu) (net 5))
  (segment (start 73 38) (end 83 28) (width 2) (layer F.Cu) (net 5))
  (segment (start 83 28) (end 114 28) (width 2) (layer F.Cu) (net 5))
  (segment (start 114 28) (end 114 41) (width 2) (layer F.Cu) (net 5))
  (segment (start 165 86) (end 165 81) (width 2) (layer B.Cu) (net 6))
  (segment (start 165 81) (end 165 75) (width 2) (layer B.Cu) (net 6))
  (segment (start 158 92) (end 158 86) (width 2) (layer B.Cu) (net 6))
  (segment (start 158 86) (end 163 81) (width 2) (layer B.Cu) (net 6))
  (segment (start 163 81) (end 165 81) (width 2) (layer B.Cu) (net 6))
  (segment (start 165 75) (end 175 65) (width 2) (layer B.Cu) (net 6))
  (segment (start 175 65) (end 177 65) (width 2) (layer B.Cu) (net 6))
  (segment (start 125.399999 54.399999) (end 158 87) (width 2) (layer F.Cu) (net 6))
  (segment (start 158 87) (end 158 92) (width 2) (layer F.Cu) (net 6))
  (segment (start 123 53) (end 124.399999 54.399999) (width 2) (layer F.Cu) (net 6))
  (segment (start 124.399999 54.399999) (end 125.399999 54.399999) (width 2) (layer F.Cu) (net 6))
  (segment (start 103 42) (end 114 53) (width 2) (layer B.Cu) (net 6))
  (segment (start 114 53) (end 123 53) (width 2) (layer B.Cu) (net 6))
  (segment (start 103 38) (end 103 42) (width 2) (layer B.Cu) (net 6))

  (zone (net 6) (net_name /BLACK_1) (layer B.Cu) (tstamp 0) (hatch edge 0.508)
    (connect_pads (clearance 0.508))
    (min_thickness 0.254)
    (fill yes (arc_segments 16) (thermal_gap 0.508) (thermal_bridge_width 0.508))
    (polygon
      (pts
        (xy 28 103) (xy 28 20) (xy 196 20) (xy 196 103)
      )
    )
    (filled_polygon
      (pts
        (xy 195.873 102.873) (xy 28.127 102.873) (xy 28.127 98.572731) (xy 32.107499 98.572731) (xy 32.546852 99.636046)
        (xy 33.359674 100.450289) (xy 34.422222 100.891497) (xy 35.572731 100.892501) (xy 36.636046 100.453148) (xy 37.450289 99.640326)
        (xy 37.891497 98.577778) (xy 37.891501 98.572731) (xy 186.107499 98.572731) (xy 186.546852 99.636046) (xy 187.359674 100.450289)
        (xy 188.422222 100.891497) (xy 189.572731 100.892501) (xy 190.636046 100.453148) (xy 191.450289 99.640326) (xy 191.891497 98.577778)
        (xy 191.892501 97.427269) (xy 191.453148 96.363954) (xy 190.640326 95.549711) (xy 189.577778 95.108503) (xy 188.427269 95.107499)
        (xy 187.363954 95.546852) (xy 186.549711 96.359674) (xy 186.108503 97.422222) (xy 186.107499 98.572731) (xy 37.891501 98.572731)
        (xy 37.892501 97.427269) (xy 37.453148 96.363954) (xy 36.640326 95.549711) (xy 36.217887 95.374299) (xy 89.907637 95.374299)
        (xy 90.225454 96.143475) (xy 90.81343 96.732477) (xy 91.58205 97.051636) (xy 92.414299 97.052363) (xy 93.183475 96.734546)
        (xy 93.772477 96.14657) (xy 94.091636 95.37795) (xy 94.092363 94.545701) (xy 93.988486 94.294299) (xy 100.907637 94.294299)
        (xy 101.225454 95.063475) (xy 101.81343 95.652477) (xy 102.58205 95.971636) (xy 103.414299 95.972363) (xy 104.183475 95.654546)
        (xy 104.772477 95.06657) (xy 105.091636 94.29795) (xy 105.092363 93.465701) (xy 104.774546 92.696525) (xy 104.67819 92.6)
        (xy 120.690525 92.6) (xy 120.690525 95.4) (xy 120.752723 95.730555) (xy 120.948081 96.03415) (xy 121.246163 96.237821)
        (xy 121.6 96.309475) (xy 124.4 96.309475) (xy 124.730555 96.247277) (xy 125.03415 96.051919) (xy 125.237821 95.753837)
        (xy 125.309475 95.4) (xy 125.309475 92.6) (xy 125.247277 92.269445) (xy 125.051919 91.96585) (xy 124.892 91.856582)
        (xy 124.892 90.8) (xy 139.890525 90.8) (xy 139.890525 93.2) (xy 139.952723 93.530555) (xy 140.148081 93.83415)
        (xy 140.446163 94.037821) (xy 140.8 94.109475) (xy 143.2 94.109475) (xy 143.530555 94.047277) (xy 143.83415 93.851919)
        (xy 144.037821 93.553837) (xy 144.109475 93.2) (xy 144.109475 90.8) (xy 152.390525 90.8) (xy 152.390525 93.2)
        (xy 152.452723 93.530555) (xy 152.648081 93.83415) (xy 152.946163 94.037821) (xy 153.3 94.109475) (xy 155.7 94.109475)
        (xy 156.030555 94.047277) (xy 156.33415 93.851919) (xy 156.537821 93.553837) (xy 156.589796 93.297175) (xy 156.88243 93.297175)
        (xy 157.005565 93.584788) (xy 157.687734 93.844707) (xy 158.417443 93.823786) (xy 158.994435 93.584788) (xy 159.11757 93.297175)
        (xy 158 92.179605) (xy 156.88243 93.297175) (xy 156.589796 93.297175) (xy 156.609475 93.2) (xy 156.609475 93.077604)
        (xy 156.702825 93.11757) (xy 157.820395 92) (xy 158.179605 92) (xy 159.297175 93.11757) (xy 159.390525 93.077604)
        (xy 159.390525 93.2) (xy 159.452723 93.530555) (xy 159.648081 93.83415) (xy 159.946163 94.037821) (xy 160.3 94.109475)
        (xy 162.7 94.109475) (xy 163.030555 94.047277) (xy 163.33415 93.851919) (xy 163.537821 93.553837) (xy 163.589796 93.297175)
        (xy 163.88243 93.297175) (xy 164.005565 93.584788) (xy 164.687734 93.844707) (xy 165.417443 93.823786) (xy 165.994435 93.584788)
        (xy 166.11757 93.297175) (xy 165 92.179605) (xy 163.88243 93.297175) (xy 163.589796 93.297175) (xy 163.609475 93.2)
        (xy 163.609475 93.077604) (xy 163.702825 93.11757) (xy 164.820395 92) (xy 165.179605 92) (xy 166.297175 93.11757)
        (xy 166.390525 93.077604) (xy 166.390525 93.2) (xy 166.452723 93.530555) (xy 166.648081 93.83415) (xy 166.946163 94.037821)
        (xy 167.3 94.109475) (xy 169.7 94.109475) (xy 170.030555 94.047277) (xy 170.33415 93.851919) (xy 170.537821 93.553837)
        (xy 170.589796 93.297175) (xy 170.88243 93.297175) (xy 171.005565 93.584788) (xy 171.687734 93.844707) (xy 172.417443 93.823786)
        (xy 172.994435 93.584788) (xy 173.11757 93.297175) (xy 172 92.179605) (xy 170.88243 93.297175) (xy 170.589796 93.297175)
        (xy 170.609475 93.2) (xy 170.609475 93.077604) (xy 170.702825 93.11757) (xy 171.820395 92) (xy 172.179605 92)
        (xy 173.297175 93.11757) (xy 173.584788 92.994435) (xy 173.844707 92.312266) (xy 173.823786 91.582557) (xy 173.584788 91.005565)
        (xy 173.297175 90.88243) (xy 172.179605 92) (xy 171.820395 92) (xy 170.702825 90.88243) (xy 170.609475 90.922396)
        (xy 170.609475 90.8) (xy 170.591191 90.702825) (xy 170.88243 90.702825) (xy 172 91.820395) (xy 173.11757 90.702825)
        (xy 172.994435 90.415212) (xy 172.312266 90.155293) (xy 171.582557 90.176214) (xy 171.005565 90.415212) (xy 170.88243 90.702825)
        (xy 170.591191 90.702825) (xy 170.547277 90.469445) (xy 170.351919 90.16585) (xy 170.053837 89.962179) (xy 169.7 89.890525)
        (xy 167.3 89.890525) (xy 166.969445 89.952723) (xy 166.66585 90.148081) (xy 166.462179 90.446163) (xy 166.390525 90.8)
        (xy 166.390525 90.922396) (xy 166.297175 90.88243) (xy 165.179605 92) (xy 164.820395 92) (xy 163.702825 90.88243)
        (xy 163.609475 90.922396) (xy 163.609475 90.8) (xy 163.591191 90.702825) (xy 163.88243 90.702825) (xy 165 91.820395)
        (xy 166.11757 90.702825) (xy 165.994435 90.415212) (xy 165.312266 90.155293) (xy 164.582557 90.176214) (xy 164.005565 90.415212)
        (xy 163.88243 90.702825) (xy 163.591191 90.702825) (xy 163.547277 90.469445) (xy 163.351919 90.16585) (xy 163.053837 89.962179)
        (xy 162.7 89.890525) (xy 160.3 89.890525) (xy 159.969445 89.952723) (xy 159.66585 90.148081) (xy 159.462179 90.446163)
        (xy 159.390525 90.8) (xy 159.390525 90.922396) (xy 159.297175 90.88243) (xy 158.179605 92) (xy 157.820395 92)
        (xy 156.702825 90.88243) (xy 156.609475 90.922396) (xy 156.609475 90.8) (xy 156.591191 90.702825) (xy 156.88243 90.702825)
        (xy 158 91.820395) (xy 159.11757 90.702825) (xy 158.994435 90.415212) (xy 158.312266 90.155293) (xy 157.582557 90.176214)
        (xy 157.005565 90.415212) (xy 156.88243 90.702825) (xy 156.591191 90.702825) (xy 156.547277 90.469445) (xy 156.351919 90.16585)
        (xy 156.053837 89.962179) (xy 155.7 89.890525) (xy 153.3 89.890525) (xy 152.969445 89.952723) (xy 152.66585 90.148081)
        (xy 152.462179 90.446163) (xy 152.390525 90.8) (xy 144.109475 90.8) (xy 144.047277 90.469445) (xy 143.851919 90.16585)
        (xy 143.553837 89.962179) (xy 143.2 89.890525) (xy 140.8 89.890525) (xy 140.469445 89.952723) (xy 140.16585 90.148081)
        (xy 139.962179 90.446163) (xy 139.890525 90.8) (xy 124.892 90.8) (xy 124.892 73.523221) (xy 174.357542 73.523221)
        (xy 174.758915 74.494618) (xy 175.501473 75.238473) (xy 176.472168 75.641541) (xy 177.523221 75.642458) (xy 178.494618 75.241085)
        (xy 179.238473 74.498527) (xy 179.641541 73.527832) (xy 179.642458 72.476779) (xy 179.241085 71.505382) (xy 178.498527 70.761527)
        (xy 177.527832 70.358459) (xy 176.476779 70.357542) (xy 175.505382 70.758915) (xy 174.761527 71.501473) (xy 174.358459 72.472168)
        (xy 174.357542 73.523221) (xy 124.892 73.523221) (xy 124.892 66.783692) (xy 125.161722 66.51397) (xy 175.665635 66.51397)
        (xy 175.825418 66.832739) (xy 176.616187 67.142723) (xy 177.465387 67.126497) (xy 178.174582 66.832739) (xy 178.334365 66.51397)
        (xy 177 65.179605) (xy 175.665635 66.51397) (xy 125.161722 66.51397) (xy 127.059505 64.616187) (xy 174.857277 64.616187)
        (xy 174.873503 65.465387) (xy 175.167261 66.174582) (xy 175.48603 66.334365) (xy 176.820395 65) (xy 177.179605 65)
        (xy 178.51397 66.334365) (xy 178.832739 66.174582) (xy 179.142723 65.383813) (xy 179.126497 64.534613) (xy 178.832739 63.825418)
        (xy 178.51397 63.665635) (xy 177.179605 65) (xy 176.820395 65) (xy 175.48603 63.665635) (xy 175.167261 63.825418)
        (xy 174.857277 64.616187) (xy 127.059505 64.616187) (xy 128.189662 63.48603) (xy 175.665635 63.48603) (xy 177 64.820395)
        (xy 178.334365 63.48603) (xy 178.174582 63.167261) (xy 177.383813 62.857277) (xy 176.534613 62.873503) (xy 175.825418 63.167261)
        (xy 175.665635 63.48603) (xy 128.189662 63.48603) (xy 134.716677 56.959015) (xy 139.908 56.959015) (xy 139.908 57.040985)
        (xy 140.067244 57.841559) (xy 140.520733 58.520252) (xy 141.199426 58.973741) (xy 142 59.132985) (xy 142.800574 58.973741)
        (xy 143.479267 58.520252) (xy 143.932756 57.841559) (xy 144.092 57.040985) (xy 144.092 56.959015) (xy 143.932756 56.158441)
        (xy 143.479267 55.479748) (xy 142.800574 55.026259) (xy 142 54.867015) (xy 141.199426 55.026259) (xy 140.520733 55.479748)
        (xy 140.067244 56.158441) (xy 139.908 56.959015) (xy 134.716677 56.959015) (xy 138.401981 53.273711) (xy 174.607586 53.273711)
        (xy 174.970979 54.153189) (xy 175.643272 54.826656) (xy 176.522114 55.191584) (xy 177.473711 55.192414) (xy 178.353189 54.829021)
        (xy 179.026656 54.156728) (xy 179.391584 53.277886) (xy 179.392414 52.326289) (xy 179.029021 51.446811) (xy 178.356728 50.773344)
        (xy 177.477886 50.408416) (xy 176.526289 50.407586) (xy 175.646811 50.770979) (xy 174.973344 51.443272) (xy 174.608416 52.322114)
        (xy 174.607586 53.273711) (xy 138.401981 53.273711) (xy 142.837846 48.837846) (xy 143.24798 48.224037) (xy 143.392 47.5)
        (xy 143.392 44.523221) (xy 174.357542 44.523221) (xy 174.758915 45.494618) (xy 175.501473 46.238473) (xy 176.472168 46.641541)
        (xy 177.523221 46.642458) (xy 178.494618 46.241085) (xy 179.238473 45.498527) (xy 179.641541 44.527832) (xy 179.642458 43.476779)
        (xy 179.241085 42.505382) (xy 178.498527 41.761527) (xy 177.527832 41.358459) (xy 176.476779 41.357542) (xy 175.505382 41.758915)
        (xy 174.761527 42.501473) (xy 174.358459 43.472168) (xy 174.357542 44.523221) (xy 143.392 44.523221) (xy 143.392 41)
        (xy 143.24798 40.275963) (xy 142.837846 39.662154) (xy 142.224037 39.25202) (xy 141.5 39.108) (xy 140.775963 39.25202)
        (xy 140.162154 39.662154) (xy 139.75202 40.275963) (xy 139.608 41) (xy 139.608 46.716308) (xy 121.662154 64.662154)
        (xy 121.25202 65.275963) (xy 121.108 66) (xy 121.108 91.85661) (xy 120.96585 91.948081) (xy 120.762179 92.246163)
        (xy 120.690525 92.6) (xy 104.67819 92.6) (xy 104.18657 92.107523) (xy 103.41795 91.788364) (xy 102.585701 91.787637)
        (xy 101.816525 92.105454) (xy 101.227523 92.69343) (xy 100.908364 93.46205) (xy 100.907637 94.294299) (xy 93.988486 94.294299)
        (xy 93.774546 93.776525) (xy 93.18657 93.187523) (xy 92.41795 92.868364) (xy 91.585701 92.867637) (xy 90.816525 93.185454)
        (xy 90.227523 93.77343) (xy 89.908364 94.54205) (xy 89.907637 95.374299) (xy 36.217887 95.374299) (xy 35.577778 95.108503)
        (xy 34.427269 95.107499) (xy 33.363954 95.546852) (xy 32.549711 96.359674) (xy 32.108503 97.422222) (xy 32.107499 98.572731)
        (xy 28.127 98.572731) (xy 28.127 90.327558) (xy 55.345713 90.327558) (xy 55.596989 90.935692) (xy 56.061861 91.401376)
        (xy 56.669556 91.653712) (xy 57.327558 91.654287) (xy 57.935692 91.403011) (xy 58.401376 90.938139) (xy 58.653712 90.330444)
        (xy 58.654287 89.672442) (xy 58.403011 89.064308) (xy 57.938139 88.598624) (xy 57.330444 88.346288) (xy 56.672442 88.345713)
        (xy 56.064308 88.596989) (xy 55.598624 89.061861) (xy 55.346288 89.669556) (xy 55.345713 90.327558) (xy 28.127 90.327558)
        (xy 28.127 71.327558) (xy 55.345713 71.327558) (xy 55.596989 71.935692) (xy 56.061861 72.401376) (xy 56.669556 72.653712)
        (xy 57.327558 72.654287) (xy 57.935692 72.403011) (xy 58.401376 71.938139) (xy 58.653712 71.330444) (xy 58.654287 70.672442)
        (xy 58.403011 70.064308) (xy 57.938139 69.598624) (xy 57.330444 69.346288) (xy 56.672442 69.345713) (xy 56.064308 69.596989)
        (xy 55.598624 70.061861) (xy 55.346288 70.669556) (xy 55.345713 71.327558) (xy 28.127 71.327558) (xy 28.127 51.523221)
        (xy 54.357542 51.523221) (xy 54.758915 52.494618) (xy 55.501473 53.238473) (xy 56.472168 53.641541) (xy 57.523221 53.642458)
        (xy 58.005556 53.443161) (xy 121.013833 53.443161) (xy 121.334611 54.169501) (xy 121.90893 54.717795) (xy 122.55684 54.98616)
        (xy 122.873 54.871947) (xy 122.873 53.127) (xy 123.127 53.127) (xy 123.127 54.871947) (xy 123.44316 54.98616)
        (xy 124.09107 54.717795) (xy 124.665389 54.169501) (xy 124.986167 53.443161) (xy 124.87229 53.127) (xy 123.127 53.127)
        (xy 122.873 53.127) (xy 121.12771 53.127) (xy 121.013833 53.443161) (xy 58.005556 53.443161) (xy 58.494618 53.241085)
        (xy 59.180059 52.556839) (xy 121.013833 52.556839) (xy 121.12771 52.873) (xy 122.873 52.873) (xy 122.873 51.128053)
        (xy 123.127 51.128053) (xy 123.127 52.873) (xy 124.87229 52.873) (xy 124.986167 52.556839) (xy 124.665389 51.830499)
        (xy 124.09107 51.282205) (xy 123.44316 51.01384) (xy 123.127 51.128053) (xy 122.873 51.128053) (xy 122.55684 51.01384)
        (xy 121.90893 51.282205) (xy 121.334611 51.830499) (xy 121.013833 52.556839) (xy 59.180059 52.556839) (xy 59.238473 52.498527)
        (xy 59.641541 51.527832) (xy 59.642458 50.476779) (xy 59.241085 49.505382) (xy 58.498527 48.761527) (xy 57.527832 48.358459)
        (xy 56.476779 48.357542) (xy 55.505382 48.758915) (xy 54.761527 49.501473) (xy 54.358459 50.472168) (xy 54.357542 51.523221)
        (xy 28.127 51.523221) (xy 28.127 41) (xy 112.274852 41) (xy 112.403648 41.6475) (xy 112.770427 42.196425)
        (xy 113.319352 42.563204) (xy 113.966852 42.692) (xy 114.033148 42.692) (xy 114.680648 42.563204) (xy 115.229573 42.196425)
        (xy 115.596352 41.6475) (xy 115.725148 41) (xy 115.596352 40.3525) (xy 115.229573 39.803575) (xy 114.680648 39.436796)
        (xy 114.033148 39.308) (xy 113.966852 39.308) (xy 113.319352 39.436796) (xy 112.770427 39.803575) (xy 112.403648 40.3525)
        (xy 112.274852 41) (xy 28.127 41) (xy 28.127 38.411807) (xy 101.211797 38.411807) (xy 101.505508 39.064776)
        (xy 102.026742 39.555642) (xy 102.588195 39.788195) (xy 102.873 39.671432) (xy 102.873 38.127) (xy 103.127 38.127)
        (xy 103.127 39.671432) (xy 103.411805 39.788195) (xy 103.973258 39.555642) (xy 104.494492 39.064776) (xy 104.788203 38.411807)
        (xy 104.671858 38.127) (xy 103.127 38.127) (xy 102.873 38.127) (xy 101.328142 38.127) (xy 101.211797 38.411807)
        (xy 28.127 38.411807) (xy 28.127 37.588193) (xy 101.211797 37.588193) (xy 101.328142 37.873) (xy 102.873 37.873)
        (xy 102.873 36.328568) (xy 103.127 36.328568) (xy 103.127 37.873) (xy 104.671858 37.873) (xy 104.788203 37.588193)
        (xy 104.494492 36.935224) (xy 103.973258 36.444358) (xy 103.411805 36.211805) (xy 103.127 36.328568) (xy 102.873 36.328568)
        (xy 102.588195 36.211805) (xy 102.026742 36.444358) (xy 101.505508 36.935224) (xy 101.211797 37.588193) (xy 28.127 37.588193)
        (xy 28.127 33.959015) (xy 89.908 33.959015) (xy 89.908 34.040985) (xy 90.067244 34.841559) (xy 90.520733 35.520252)
        (xy 91.199426 35.973741) (xy 92 36.132985) (xy 92.800574 35.973741) (xy 93.479267 35.520252) (xy 93.932756 34.841559)
        (xy 94.092 34.040985) (xy 94.092 33.959015) (xy 93.932756 33.158441) (xy 93.479267 32.479748) (xy 92.800574 32.026259)
        (xy 92 31.867015) (xy 91.199426 32.026259) (xy 90.520733 32.479748) (xy 90.067244 33.158441) (xy 89.908 33.959015)
        (xy 28.127 33.959015) (xy 28.127 25.572731) (xy 32.107499 25.572731) (xy 32.546852 26.636046) (xy 33.359674 27.450289)
        (xy 34.422222 27.891497) (xy 35.572731 27.892501) (xy 36.466456 27.523221) (xy 54.357542 27.523221) (xy 54.758915 28.494618)
        (xy 55.501473 29.238473) (xy 56.472168 29.641541) (xy 57.523221 29.642458) (xy 58.494618 29.241085) (xy 59.238473 28.498527)
        (xy 59.445479 28) (xy 112.274852 28) (xy 112.403648 28.6475) (xy 112.770427 29.196425) (xy 113.319352 29.563204)
        (xy 113.966852 29.692) (xy 114.033148 29.692) (xy 114.680648 29.563204) (xy 115.229573 29.196425) (xy 115.596352 28.6475)
        (xy 115.658495 28.335083) (xy 139.807707 28.335083) (xy 140.064756 28.957189) (xy 140.540308 29.433571) (xy 141.161964 29.691705)
        (xy 141.835083 29.692293) (xy 142.457189 29.435244) (xy 142.933571 28.959692) (xy 143.191705 28.338036) (xy 143.192293 27.664917)
        (xy 142.935244 27.042811) (xy 142.459692 26.566429) (xy 141.838036 26.308295) (xy 141.164917 26.307707) (xy 140.542811 26.564756)
        (xy 140.066429 27.040308) (xy 139.808295 27.661964) (xy 139.807707 28.335083) (xy 115.658495 28.335083) (xy 115.725148 28)
        (xy 115.596352 27.3525) (xy 115.229573 26.803575) (xy 114.680648 26.436796) (xy 114.033148 26.308) (xy 113.966852 26.308)
        (xy 113.319352 26.436796) (xy 112.770427 26.803575) (xy 112.403648 27.3525) (xy 112.274852 28) (xy 59.445479 28)
        (xy 59.641541 27.527832) (xy 59.642458 26.476779) (xy 59.268914 25.572731) (xy 186.107499 25.572731) (xy 186.546852 26.636046)
        (xy 187.359674 27.450289) (xy 188.422222 27.891497) (xy 189.572731 27.892501) (xy 190.636046 27.453148) (xy 191.450289 26.640326)
        (xy 191.891497 25.577778) (xy 191.892501 24.427269) (xy 191.453148 23.363954) (xy 190.640326 22.549711) (xy 189.577778 22.108503)
        (xy 188.427269 22.107499) (xy 187.363954 22.546852) (xy 186.549711 23.359674) (xy 186.108503 24.422222) (xy 186.107499 25.572731)
        (xy 59.268914 25.572731) (xy 59.241085 25.505382) (xy 58.498527 24.761527) (xy 57.527832 24.358459) (xy 56.476779 24.357542)
        (xy 55.505382 24.758915) (xy 54.761527 25.501473) (xy 54.358459 26.472168) (xy 54.357542 27.523221) (xy 36.466456 27.523221)
        (xy 36.636046 27.453148) (xy 37.450289 26.640326) (xy 37.891497 25.577778) (xy 37.892501 24.427269) (xy 37.453148 23.363954)
        (xy 36.640326 22.549711) (xy 35.577778 22.108503) (xy 34.427269 22.107499) (xy 33.363954 22.546852) (xy 32.549711 23.359674)
        (xy 32.108503 24.422222) (xy 32.107499 25.572731) (xy 28.127 25.572731) (xy 28.127 20.127) (xy 195.873 20.127)
      )
    )
  )
)
